{
  "type": "service_account",
  "project_id": "speech-1532943030336",
  "private_key_id": "9a46d98ae4d81f7c6af4a1928e0da0258c5ae6c7",
  "private_key": "-----BEGIN PRIVATE KEY-----\nMIIEvQIBADANBgkqhkiG9w0BAQEFAASCBKcwggSjAgEAAoIBAQC1q5UJxbUAj4Jq\nf+VwTy//s744Mr8aphr09FTapHlfGGPgHO09K7aYGTT8NOqoO7TvgbtxFrN9Nj4w\nYso7J6Z1ugyJC1EBPyoS8owyS/TctX8c5/MvQfeBPCOh/mIC8bC8DVDDgVTJghTC\n+iscDdLFC+cdGfT5iPlZCeM8tIVLpc4NVuKU7TAzl5EEQr+nux7kUGJIrt78sJMO\n/mleHhgx3CmZGck6e2jEoOKPzp2aT2wyaPFnv23+XK+Bz4xAf8nxEIKKN1HcJFLH\nBGFHUh1PmZYeQcKvPTokJYw3+aHVou4/bg4GfhTWxtovIblLdNNFIJKlnRNmctMO\n2RwdNG1JAgMBAAECggEACaoJW/i5f+sidpnmfF//X1c80kPY015svAUsvROCJWM9\nxOlPsYZcHfaRUVgF96cddp7seBVLZ74f9sulPcUGij1jIf3edEuGPcsgrCL1nAbH\nrqOkKypo3pDIGyZWKRlEW+ygFEEStUQx6IwNs7NZ4q5BwCmQ/56gF8glNNCBmsbY\nXvU1Ln9vbZSzIQu9G+TjAza0I86Kmf2dYmIPyvaCEhOdysFKykPOj/DeiMDNb749\n7Bn/cSamVVyBjHurbWvTUUeiNkB+a1JQXOYVAcz7kQ4ZrnQogRGFfoGYYNSyV2xR\nBgzjL7HTDwPrSKVstXaOuoaESt8UNov1K8RaulYZpQKBgQD6Khu11bG0SQCw+Lif\nVFirA3FUJbhRY1UgycIpc735g3rs7IgkOuM+wQZkpoqL0OBQIc6GRHd2ohTPTfeF\nTG8a171MAHzIVYXA/2KFTGyoZQDKfa/bxYTnrOIxencnqMF35mvbHqf27GQhnCyw\n2FGZY5oYhFyk5V1aDqKjhkTRcwKBgQC56HN8K6R+aWrWtravyP6ep+9ttFP/vjP2\ncaCjtFuv6AuHpJVZcoqRX1vYk1Qctldqm/p5M23LvhOG7/qYNwOugPZWY+8cykrI\n9XGyR9ns/tbDzZHOo9yzr0JC8TkbwrPBnE0UY7xcdwFCCqs10CD8ElaENc8l6Ozc\nw00TVBQnUwKBgBAzMeAwmnVmVNkhAjOvLp7Edk5QswLyP80Dw8MTb7X8wbUeDCLs\nfVLPBS73aflr6VrHFay0OlhAXsCd9+116av/VI7baTk/8I1y/FpNfKva/pYeVYkR\n3W1zUKKLn7O9xemRzmI+NfpTjJhwmKRLHd2lCZGU4Lr873Kph/a29zXpAoGBAIKF\njO8UxPxrjrMIvOJVv04soZDoFkFrjJft1taYffbWd6HYD3MpU9gUlytK5Lbz3hPf\nRs9pKCDvZk5KlingFhmiOVEWAH66GB9XE2gTwhD+KlJ2NXRa30zYMzFEos+2tvWr\ngwJZs5lHg/6V9vZlFYNkbJGOJc175zBnfemgEjY5AoGAYt7QVMOfSpznq87HrCpV\nYrzgnRlARwjAIuNcMuQEOIayOexIJfUepzangqA+hB5lTmJfpMkKhP+0bRtraOUD\nHDB2WXl1zizlVHnlxC5PkVx9jltpgwrLanuCGtGbr+xefpq0q5VpGnm8PnzTgW8d\n5eyR5wZcv8hBVT7riB9lDYg=\n-----END PRIVATE KEY-----\n",
  "client_email": "starting-account-683vu8yyco5v@speech-1532943030336.iam.gserviceaccount.com",
  "client_id": "116357113534942811437",
  "auth_uri": "https://accounts.google.com/o/oauth2/auth",
  "token_uri": "https://accounts.google.com/o/oauth2/token",
  "auth_provider_x509_cert_url": "https://www.googleapis.com/oauth2/v1/certs",
  "client_x509_cert_url": "https://www.googleapis.com/robot/v1/metadata/x509/starting-account-683vu8yyco5v%40speech-1532943030336.iam.gserviceaccount.com"
}
